<?xml version="1.0" encoding="UTF-8" standalone="no"?>
<svg width="96px" height="29px" viewBox="0 0 96 29" version="1.1" xmlns="http://www.w3.org/2000/svg" xmlns:xlink="http://www.w3.org/1999/xlink">
    <!-- Generator: Sketch 3.8.3 (29802) - http://www.bohemiancoding.com/sketch -->
    <title>lg-ustorage-mobile</title>
    <desc>Created with Sketch.</desc>
    <defs></defs>
    <g id="Symbols" stroke="none" stroke-width="1" fill="none" fill-rule="evenodd">
        <g id="mobile-top-nav" transform="translate(-16.000000, -14.000000)">
            <g id="top-nav">
                <g id="lg-ustorage-mobile" transform="translate(16.000000, 14.000000)">
                    <path d="M0.0822352941,10.28959 C0.0822352941,10.28959 0.882352941,12.5776515 3.80011765,12.5776515 C6.39882353,12.5776515 7.27411765,10.9261345 7.27411765,10.9261345 L7.62423529,10.9229214 L7.65247059,12.3034697 L12.3529412,12.2731241 L12.2654118,0.439393939 C10.6793107,0.659499253 9.07092462,0.659499253 7.48482353,0.439393939 L7.45129412,9.64340625 C7.03716028,9.9147194 6.56279026,10.0775273 6.07094118,10.1171553 C5.5684154,10.0655574 5.09004959,9.87331694 4.68952941,9.56200852 L4.70611765,0.439393939 C3.14421649,0.648410717 1.56190116,0.648410717 8.8817842e-16,0.439393939 L0.0822352941,10.28959 Z" id="Forma_2" fill="#EF7521"></path>
                    <path d="M31.8730588,1.21160133 C31.8730588,1.21160133 31.2158824,2.53824148 31.4248235,3.63139867 L30.8647059,3.60319508 C30.8647059,3.60319508 30.8647059,1.51898485 28.5656471,1.51898485 C26.5185882,1.51898485 26.3774118,3.0951733 26.3774118,3.0951733 C26.3133611,3.68090418 26.6636399,4.23196089 27.2170588,4.41610133 C28.2021176,4.80880966 32.3756471,6.08511174 32.3756471,8.8965464 C32.3756471,11.7079811 30.6,13.3648532 27.4178824,13.3648532 C24.2357647,13.3648532 23.5115294,12.6790417 23.5115294,12.6790417 C23.5115294,12.6790417 24.0617647,11.750822 23.8778824,10.0846676 L24.3458824,10.0807405 C24.8408315,11.1627302 25.8894082,11.8766689 27.0667059,11.9332528 C29.3781176,12.0467812 29.5171765,11.1164195 29.5249412,10.9693324 C29.6678436,10.426099 29.4517453,9.85124521 28.9881176,9.54130208 C28.0990588,8.79372822 23.5471765,7.67236742 23.5471765,4.81309375 C23.5471765,2.72995455 24.6924706,0.0784592803 28.3701176,0.198770833 C30.0021176,0.253035985 31.8730588,1.21160133 31.8730588,1.21160133 L31.8730588,1.21160133 Z M38.6195294,0.273385417 L38.6195294,4.31292614 L40.2561176,4.31292614 L40.2518824,5.20044697 L38.6477647,5.19580587 L38.6477647,11.51484 C39.0208185,12.1447717 39.8251178,12.3544471 40.4527059,11.9853759 L40.4244706,12.8621866 C40.4244706,12.8621866 36.2452941,14.6593627 35.0424706,11.5391165 L35.0424706,5.27434754 L33.8174118,5.26934943 L33.8174118,4.22367424 L35.0424706,4.22367424 L35.0424706,1.92525947 C36.3106035,1.56093565 37.5167007,1.00396391 38.6195294,0.273385417 L38.6195294,0.273385417 Z M46.9037647,3.85595644 C45.7517647,3.83489299 41.6036471,4.66172254 41.6036471,8.5616733 C41.6036471,13.1792093 45.8901176,13.2327604 46.9722353,13.2327604 C48.0543529,13.2327604 52.0065882,13.0085597 52.0065882,8.38995265 C52.0065882,4.28793561 47.8376471,3.87380682 46.9037647,3.85631345 L46.9037647,3.85595644 Z M46.7908235,12.5855057 C45.4627059,12.5855057 45.3303529,11.0357358 45.3303529,11.0357358 L45.3303529,6.15972633 C45.3303453,5.35383291 45.9743524,4.69953333 46.7710588,4.69599527 C47.9297647,4.73169602 48.0638824,6.05262405 48.0638824,6.05262405 L48.0638824,11.14141 C48.0638824,11.14141 48.126,12.5858627 46.7908235,12.5858627 L46.7908235,12.5855057 Z M54.3772941,4.1322803 L54.3772941,13.1695701 L58.0309412,13.1695701 L58.0309412,8.18645833 C58.0309412,8.18645833 58.2472941,6.60955587 59.5355294,6.60955587 C60.8237647,6.60955587 60.9748235,7.14899432 60.9748235,7.14899432 C60.9748235,7.14899432 60.8032941,4.75704356 61.1032941,4.04838352 C61.1032941,4.04838352 58.6327059,3.91343466 58.1834118,6.14116193 L57.7323529,6.14116193 L57.7323529,4.15691383 C57.7323529,4.15691383 55.344,4.56247443 54.3772941,4.13263731 L54.3772941,4.1322803 Z M70.9877647,11.7679583 L70.9877647,6.15972633 C70.9877647,6.15972633 70.6835294,3.70494223 66.4955294,3.98198011 C65.4000912,4.11146898 64.3452846,4.47901652 63.4034118,5.05942898 C63.4034118,5.05942898 64.1092941,5.77130208 64.1092941,6.05083902 C64.6520867,5.45266049 65.415798,5.10893474 66.2184706,5.10155587 C67.548,5.10155587 67.8451765,6.43890625 67.8451765,6.43890625 C67.8451765,6.43890625 67.9761176,7.55883902 67.4188235,7.60167992 C66.8615294,7.64452083 62.4776471,8.49027178 62.4776471,11.1603314 C62.4776471,13.4694564 65.4423529,13.3380777 65.4423529,13.3380777 C65.4423529,13.3380777 67.4654118,13.3634252 67.8292941,12.3256042 L68.064,12.3256042 C68.064,12.3256042 68.3855294,13.1888485 70.1929412,13.1888485 C71.5443529,13.1888485 72.1665882,12.5844347 72.1665882,12.5844347 L72.1665882,11.9154025 C72.1665882,11.9154025 71.76,12.2406364 70.9877647,11.7683153 L70.9877647,11.7679583 Z M67.8067059,11.2085275 C67.8067059,11.2085275 67.6365882,11.9832339 67.0129412,11.9832339 C66.3892941,11.9832339 65.9435294,11.3549006 65.9435294,10.387053 C65.9435294,8.64021496 67.8067059,8.4909858 67.8067059,8.4909858 L67.8067059,11.2085275 L67.8067059,11.2085275 Z M83.4303529,4.35398201 L79.9175294,4.29507576 C79.2872575,4.05723979 78.6168692,3.94721335 77.9445882,3.97126989 C76.674,3.97126989 73.7258824,4.37968655 73.6330588,6.84696591 C73.5402353,9.31424527 75.7192941,9.32781155 75.7192941,9.32781155 L75.7044706,9.86332292 C75.7044706,9.86332292 73.8744706,10.1910559 73.8744706,11.8911259 C73.8556626,12.6070211 74.3664968,13.2251875 75.0663529,13.3334366 L75.0603529,13.9510597 C75.0603529,13.9510597 72.972,14.0899356 73.2102353,15.8242784 C73.4851765,17.8149527 76.2698824,17.9356212 78.1810588,17.9356212 C78.1810588,17.9356212 83.3022353,17.9324081 83.2927059,13.4730265 C83.2927059,13.4730265 83.3696471,10.8668712 79.9750588,11.2481553 C79.9750588,11.2481553 77.0992941,11.4595038 76.7258824,11.0103883 C76.5995294,10.857232 76.2070588,9.36815341 78.0815294,9.52844981 C80.1257647,9.70302652 82.3768235,9.27176136 82.3768235,6.74379072 L82.1470588,5.22329545 L83.4229412,5.22329545 L83.4303529,4.35398201 Z M78.1810588,13.5794148 C78.6278824,13.6151155 80.7451765,13.6151155 80.7451765,15.2727017 C80.7451765,17.0049025 78.0465882,17.0630947 78.0465882,17.0630947 C78.0465882,17.0630947 75.4245882,16.8742377 75.4245882,15.1991581 C75.4245882,13.5240786 78.1810588,13.5790578 78.1810588,13.5790578 L78.1810588,13.5794148 Z M79.1410588,5.50925852 L79.1410588,8.19966761 C79.1365806,8.42365205 79.0374572,8.6349655 78.8687707,8.78013756 C78.7000841,8.92530962 78.477997,8.99043072 78.2587059,8.95902273 C77.7803311,9.00044879 77.3407434,8.69100789 77.2129412,8.22287311 L77.2235294,5.43535795 C77.2235294,5.00694886 77.7331765,4.6460142 78.2703529,4.6460142 C78.5035124,4.62660432 78.7335074,4.71061093 78.9006183,4.87622121 C79.0677291,5.04183148 79.1554702,5.27270773 79.1410588,5.50890152 L79.1410588,5.50925852 Z M93.8763529,8.76873769 C93.8763529,8.76873769 94.5628235,3.97591098 89.4723529,3.97591098 C84.3818824,3.97591098 84.6963529,8.73982008 84.6963529,8.73982008 C84.6963529,8.73982008 84.4471765,13.1235161 89.9410588,13.2156241 C89.9410588,13.2156241 92.9692941,13.1556468 93.564,11.2138826 C93.4019469,11.1531495 93.2840506,11.0098263 93.2544706,10.8375966 C93.2544706,10.8375966 92.0357647,12.0275028 90.7838824,12.0275028 C89.532,12.0275028 88.1311765,10.3674176 88.4103529,8.79908333 L93.8763529,8.76873769 Z M88.5377647,5.66277178 C88.6879924,5.15744817 89.1401535,4.80537039 89.6615294,4.78774621 C90.1649909,4.78226388 90.6112373,5.11454356 90.7556471,5.6024375 L90.7556471,7.6995 L88.5067059,7.6995 L88.5377647,5.66277178 Z M20.0615294,9.42991572 L14.4705882,9.42991572 L14.4705882,7.33713731 L20.0615294,7.33713731 L20.0615294,9.42991572 L20.0615294,9.42991572 Z M93.8138824,1.14733996 L94.0521176,1.78459848 L94.2914118,1.14733996 L94.4290588,1.14733996 L94.4290588,1.90562405 L94.3334118,1.90562405 L94.3334118,1.27443466 L94.3334118,1.27443466 L94.0969412,1.90562405 L94.0094118,1.90562405 L93.7736471,1.27443466 L93.7711765,1.27443466 L93.7711765,1.90562405 L93.6758824,1.90562405 L93.6758824,1.14733996 L93.8138824,1.14733996 L93.8138824,1.14733996 Z M94.9517647,1.14733996 C95.0127245,1.1434371 95.0729527,1.16251498 95.1208235,1.2008911 C95.1621006,1.2374367 95.1844837,1.29114323 95.1815294,1.34655019 C95.182648,1.38886729 95.1717466,1.43062136 95.1501176,1.46686174 C95.12752,1.50282526 95.0919351,1.52844436 95.0509412,1.53826326 L95.0509412,1.5400483 C95.0699358,1.54314521 95.0880161,1.55046067 95.1038824,1.56146875 C95.1170046,1.57110813 95.128152,1.58323267 95.1367059,1.59716951 C95.1448226,1.61171197 95.1508817,1.62733463 95.1547059,1.64358049 C95.1588593,1.66143069 95.1616907,1.67956939 95.1631765,1.69784564 C95.1631765,1.71533902 95.1663529,1.7335464 95.1667059,1.75318182 C95.1670588,1.77281723 95.1691765,1.79102462 95.172,1.80958902 C95.1748187,1.8274025 95.1790681,1.84495397 95.1847059,1.86206913 C95.1891088,1.87857866 95.1971988,1.89384586 95.2083529,1.90669508 L95.0957647,1.90669508 C95.0882132,1.8975107 95.0833264,1.8863887 95.0816471,1.87456439 C95.0787341,1.85950684 95.0771982,1.84420992 95.0770588,1.82886742 C95.0770588,1.81244508 95.0770588,1.7949517 95.0745882,1.7756733 C95.0736826,1.7567514 95.0715605,1.73790918 95.0682353,1.7192661 C95.0655712,1.7017233 95.0620374,1.68432699 95.0576471,1.66714299 C95.05415,1.65120955 95.0472872,1.63622974 95.0375294,1.62323106 C95.0283366,1.61049371 95.0162253,1.60020305 95.0022353,1.59324242 C94.9829329,1.58503181 94.9621052,1.58113489 94.9411765,1.58181818 L94.6941176,1.58181818 L94.6941176,1.90562405 L94.5935294,1.90562405 L94.5935294,1.14733996 L94.9492941,1.14733996 L94.9517647,1.14733996 Z M94.9736471,1.49185227 C94.9933526,1.48875843 95.0122159,1.481588 95.0290588,1.47078883 C95.0443759,1.46021672 95.057159,1.44631043 95.0664706,1.43008996 C95.0772334,1.40920596 95.0822323,1.3857736 95.0809412,1.36225852 C95.0823053,1.32832613 95.0711043,1.29509969 95.0495294,1.26907955 C95.0217995,1.24258759 94.9840735,1.22956348 94.9461176,1.23337879 L94.6965882,1.23337879 L94.6965882,1.49720739 L94.9058824,1.49720739 C94.928572,1.49684863 94.9512117,1.49494025 94.9736471,1.49149527 L94.9736471,1.49185227 Z M94.4152941,2.8081392 C93.7411442,2.80321892 93.1980824,2.24736616 93.2011897,1.56543858 C93.204297,0.883511006 93.7524013,0.332745519 94.4265673,0.334111386 C95.1007334,0.335477253 95.6466521,0.888459242 95.6470588,1.57039394 C95.6439469,2.2558234 95.0929217,2.80936424 94.4152941,2.8077822 L94.4152941,2.8081392 Z M94.4152941,0.461171402 C93.8102586,0.465502235 93.3228633,0.964411482 93.3257775,1.57642607 C93.3286917,2.18844066 93.8208155,2.68257773 94.4258641,2.68101309 C95.0309128,2.67944845 95.5205324,2.18277261 95.5203529,1.57075095 C95.5178237,0.955744055 95.0232987,0.459036136 94.4152941,0.460814394 L94.4152941,0.461171402 Z" id="Forma_3" fill="#401465"></path>
                    <path d="M0.352941176,20.4875114 C0.981564872,20.3951739 1.61621291,20.3512547 2.25141176,20.3561326 C3.18529412,20.3561326 3.83964706,20.4971506 4.28929412,20.8513021 C4.67853104,21.1718578 4.8933907,21.6608951 4.86776471,22.167946 C4.85526787,22.8690764 4.41100378,23.4876015 3.75564706,23.7162879 L3.75564706,23.7455625 C4.19435294,23.9240663 4.43894118,24.3424792 4.59635294,24.9208314 C4.79329412,25.6298485 4.98882353,26.4520369 5.11023529,26.6940881 L3.65294118,26.6940881 C3.4607791,26.2214561 3.31375647,25.7313131 3.21388235,25.230357 C3.04623529,24.4449403 2.77341176,24.2307358 2.19564706,24.2225246 L1.76470588,24.2225246 L1.76470588,26.6951591 L0.352941176,26.6951591 L0.352941176,20.4875114 L0.352941176,20.4875114 Z M1.76470588,23.1950568 L2.32588235,23.1950568 C3.03564706,23.1950568 3.45529412,22.8380492 3.45529412,22.2886146 C3.45529412,21.7102623 3.06352941,21.4210862 2.41058824,21.411447 C2.19437329,21.4075233 1.9782385,21.4229346 1.76470588,21.4575009 L1.76470588,23.1950568 L1.76470588,23.1950568 Z M6.942,24.8647812 C6.98894118,25.4538437 7.56670588,25.7326667 8.23235294,25.7326667 C8.65991194,25.7378787 9.08560958,25.6748667 9.49376471,25.5459517 L9.68047059,26.5063021 C9.15157874,26.7068335 8.59029998,26.805635 8.02552941,26.7976203 C6.47470588,26.7976203 5.58776471,25.891178 5.58776471,24.4631477 C5.58776471,23.3064432 6.30670588,22.027285 7.89564706,22.027285 C9.37129412,22.027285 9.93176471,23.1757784 9.93176471,24.3035653 C9.93151827,24.4915419 9.91653008,24.6792025 9.88694118,24.8647812 L6.94305882,24.8647812 L6.942,24.8647812 Z M8.61529412,23.8944347 C8.64244839,23.6611127 8.57032507,23.427108 8.4168971,23.2507338 C8.26346913,23.0743595 8.04318579,22.9722262 7.81094118,22.969785 C7.32282048,22.9951993 6.93832652,23.4000678 6.93282353,23.8944347 L8.61564706,23.8944347 L8.61529412,23.8944347 Z M10.7841176,23.5849091 C10.7841176,23.017267 10.7654118,22.5306657 10.746,22.1308172 L11.9812941,22.1308172 L12.048,22.7570085 L12.0744706,22.7570085 C12.3942229,22.2895886 12.9244175,22.0155377 13.4862353,22.027285 C14.4204706,22.027285 15.1224706,22.6438371 15.1224706,23.9872566 L15.1224706,26.6940881 L13.7011765,26.6940881 L13.7011765,24.1654034 C13.7011765,23.5763409 13.4950588,23.1757784 12.9815294,23.1757784 C12.6528928,23.1756428 12.3617764,23.3901835 12.2611765,23.7066487 C12.2210569,23.82119 12.2019205,23.942171 12.2047059,24.0636562 L12.2047059,26.6958731 L10.7851765,26.6958731 L10.7851765,23.5866941 L10.7841176,23.5849091 Z M17.7935294,20.8877169 L17.7935294,22.1308172 L18.8117647,22.1308172 L18.8117647,23.1757784 L17.7942353,23.1757784 L17.7942353,24.8280095 C17.7942353,25.3785152 17.9244706,25.6298485 18.354,25.6298485 C18.4954509,25.6339681 18.6368906,25.6212668 18.7754118,25.5920057 L18.7838824,26.6658845 C18.4857836,26.7626774 18.1735247,26.8072306 17.8605882,26.7976203 C17.4665973,26.8112243 17.0831619,26.6673185 16.7932941,26.3970578 C16.4936503,26.0133736 16.353058,25.5269593 16.4011765,25.040429 L16.4011765,23.1743504 L15.7937647,23.1743504 L15.7937647,22.1293892 L16.4015294,22.1293892 L16.4015294,21.270786 L17.7935294,20.8877169 Z M23.4476471,25.5823665 C23.4403133,25.9541156 23.4622651,26.3258651 23.5132941,26.6940881 L22.2335294,26.6940881 L22.1491765,26.2364044 L22.122,26.2364044 C21.7909589,26.6128351 21.3102196,26.8188807 20.8125882,26.7976203 C20.4301683,26.820689 20.0552281,26.6834767 19.7759241,26.4182451 C19.4966201,26.1530135 19.3375936,25.7831623 19.3362353,25.3956515 C19.3362353,24.2107434 20.4014118,23.6420303 22.0185882,23.6516695 L22.0185882,23.5849091 C22.0185882,23.343929 21.888,22.9979886 21.1856471,22.9979886 C20.7429297,23.0020685 20.3086815,23.1211937 19.9245882,23.343929 L19.6630588,22.4289186 C20.2143108,22.1515806 20.8238843,22.013756 21.4394118,22.027285 C22.9616471,22.027285 23.4476471,22.9233741 23.4476471,23.9979669 L23.4476471,25.5823665 L23.4476471,25.5823665 Z M22.0644706,24.5374053 C21.3169412,24.5288371 20.7381176,24.7069839 20.7381176,25.2564186 C20.729287,25.407187 20.7864918,25.5542477 20.8945241,25.6585044 C21.0025563,25.7627611 21.1504697,25.8136499 21.2989412,25.797642 C21.6301318,25.8009068 21.9269111,25.5913125 22.038,25.275697 C22.0555471,25.1956376 22.064306,25.1138639 22.0641176,25.0318608 L22.0641176,24.5374053 L22.0644706,24.5374053 Z M30.888,20.0683845 L30.888,25.3313902 C30.888,25.8465521 30.9056471,26.3859905 30.9254118,26.6937311 L29.6632941,26.6937311 L29.598,26.0214858 L29.5789412,26.0214858 C29.2772193,26.5235874 28.7299598,26.8205988 28.1495294,26.7972633 C27.0652941,26.7972633 26.1963529,25.8733277 26.1963529,24.4542225 C26.1864706,22.9133778 27.1492941,22.026571 28.2434118,22.026571 C28.7042232,21.9848009 29.1555024,22.1769953 29.448,22.5395909 L29.4674118,22.5395909 L29.4674118,20.0680275 L30.8890588,20.0680275 L30.888,20.0683845 Z M29.4663529,24.0615142 C29.4653725,23.977869 29.4588875,23.8943826 29.4469412,23.8116089 C29.373358,23.4058166 29.0243313,23.1106847 28.6164706,23.109375 C27.9712941,23.109375 27.636,23.6880843 27.636,24.4067405 C27.636,25.180733 28.0175294,25.6662633 28.6072941,25.6662633 C29.0082943,25.6698373 29.3544402,25.3828176 29.4296471,24.9843788 C29.4574625,24.8779765 29.4700611,24.7680914 29.4670588,24.6580739 L29.4670588,24.0604432 L29.4663529,24.0615142 Z M33.1221176,24.8644242 C33.1683529,25.4534867 33.7471765,25.7323097 34.4121176,25.7323097 C34.8394545,25.7376616 35.2649413,25.6746455 35.6728235,25.5455947 L35.8595294,26.5059451 C35.3303963,26.7064911 34.7688837,26.8052916 34.2038824,26.7972633 C32.6544706,26.7972633 31.7650588,25.890821 31.7650588,24.4627907 C31.7650588,23.3060862 32.4850588,22.026928 34.0743529,22.026928 C35.5510588,22.026928 36.1115294,23.1754214 36.1115294,24.3032083 C36.111364,24.4912465 36.0959001,24.678952 36.0652941,24.8644242 L33.1217647,24.8644242 L33.1221176,24.8644242 Z M34.7936471,23.8940777 C34.8209103,23.6607932 34.7488738,23.426781 34.5954997,23.2503913 C34.4421255,23.0740015 34.2218678,22.9718573 33.9896471,22.969428 C33.5016558,22.9955056 33.1172223,23.3998229 33.1104706,23.8940777 L34.794,23.8940777 L34.7936471,23.8940777 Z M44.2242353,24.286786 C44.196,23.531358 44.1684706,22.6163475 44.1684706,21.7013371 L44.1398824,21.7013371 C43.9447059,22.5042472 43.6810588,23.3999792 43.4396471,24.1382708 L42.6716471,26.5923409 L41.5623529,26.5923409 L40.8885882,24.1646894 C40.6824706,23.4167585 40.4682353,22.5224545 40.3185882,21.7013371 L40.2998824,21.7013371 C40.2624706,22.5517292 40.2331765,23.5220758 40.1869412,24.3042794 L40.0761176,26.6962301 L38.7575294,26.6962301 L39.1595294,20.4053996 L41.0572941,20.4053996 L41.6738824,22.5056752 C41.8697647,23.2243314 42.0663529,24.0176023 42.2068235,24.7548229 L42.2336471,24.7548229 C42.4122353,24.0261705 42.6278824,23.1971989 42.8336471,22.495679 L43.5063529,20.4053996 L45.366,20.4053996 L45.7118824,26.6962301 L44.3198824,26.6962301 L44.2242353,24.286786 Z M48.2823529,20.8602273 C48.2811305,21.0596307 48.197854,21.2495086 48.0525289,21.3842468 C47.9072038,21.5189851 47.7129636,21.5864068 47.5164706,21.5703153 C47.1266225,21.5676535 46.8127215,21.2458203 46.8153529,20.8514806 C46.8179844,20.4571409 47.1361519,20.1396232 47.526,20.142285 C47.7224687,20.1280327 47.9158886,20.1974652 48.0595231,20.3338054 C48.2031577,20.4701456 48.2839409,20.660991 48.2823529,20.8602273 L48.2823529,20.8602273 Z M46.8158824,26.6933741 L46.8158824,22.1308172 L48.2357647,22.1308172 L48.2357647,26.6940881 L46.8158824,26.6940881 L46.8158824,26.6933741 Z M49.3761176,23.5841951 C49.3761176,23.016553 49.3574118,22.5299517 49.3387059,22.1301032 L50.574,22.1301032 L50.6392941,22.7562945 L50.6675294,22.7562945 C50.9870653,22.2886246 51.5174028,22.0144998 52.0792941,22.026571 C53.0135294,22.026571 53.7148235,22.6431231 53.7148235,23.9865426 L53.7148235,26.6933741 L52.2942353,26.6933741 L52.2942353,24.1646894 C52.2942353,23.5756269 52.0877647,23.1750644 51.5742353,23.1750644 C51.2460043,23.1756892 50.9554879,23.3899978 50.8545882,23.7059347 C50.8146652,23.8205182 50.7956507,23.9414842 50.7984706,24.0629422 L50.7984706,26.6951591 L49.3764706,26.6951591 L49.3764706,23.5859801 L49.3761176,23.5841951 Z M56.3209412,20.8602273 C56.3193346,21.0598266 56.2356915,21.2497489 56.0900688,21.3844526 C55.9444461,21.5191564 55.7499773,21.5864928 55.5532941,21.5703153 C55.1634461,21.5672592 54.849861,21.2451063 54.8528824,20.8507666 C54.8559037,20.4564269 55.1743872,20.1392289 55.5642353,20.142285 C55.7603668,20.1290007 55.9531299,20.1987943 56.0963768,20.3349571 C56.2396237,20.47112 56.3204586,20.661394 56.3195294,20.8602273 L56.3209412,20.8602273 Z M54.8527059,26.6933741 L54.8527059,22.1308172 L56.2743529,22.1308172 L56.2743529,26.6940881 L54.8527059,26.6940881 L54.8527059,26.6933741 Z M59.5725882,23.7630559 L59.5725882,24.7159091 L57.1238824,24.7159091 L57.1238824,23.7637699 L59.5725882,23.7637699 L59.5725882,23.7630559 Z M60.4704706,20.4867973 C61.0796883,20.3924854 61.6954909,20.348547 62.3117647,20.3554186 C63.1810588,20.3554186 63.7132941,20.4400294 64.1710588,20.7124261 C64.6354575,20.942705 64.9291394,21.4209487 64.9274118,21.9441023 C64.9129139,22.5745711 64.4912879,23.1207722 63.8901176,23.2878788 L63.8901176,23.3060862 C64.6190324,23.4551005 65.1427629,24.1036365 65.1416471,24.8558561 C65.1430093,25.3801756 64.9005024,25.8746123 64.4869412,26.1907074 C64.0309412,26.5541411 63.2643529,26.7587064 62.0092941,26.7587064 C61.4943595,26.7641354 60.9796831,26.7329992 60.4690588,26.6655275 L60.4690588,20.4875114 L60.4704706,20.4867973 Z M61.8822353,22.8944564 L62.3505882,22.8944564 C63.0974118,22.8944564 63.4994118,22.5867159 63.4994118,22.120464 C63.4994118,21.6445729 63.1355294,21.3910975 62.4903529,21.3910975 C62.2869886,21.387964 62.0836863,21.4006154 61.8822353,21.4289403 L61.8822353,22.8951705 L61.8822353,22.8944564 Z M61.8822353,25.6862557 C62.0658189,25.7036337 62.2502692,25.709833 62.4345882,25.7048201 C63.0790588,25.7048201 63.6472941,25.4549148 63.6472941,24.7990919 C63.6472941,24.1646894 63.0790588,23.911214 62.3689412,23.911214 L61.8822353,23.911214 L61.8822353,25.6862557 L61.8822353,25.6862557 Z M70.6404706,24.3610436 C70.6404706,26.030768 69.4535294,26.7969062 68.2291765,26.7969062 C66.8925882,26.7969062 65.8644706,25.9193816 65.8644706,24.4442263 C65.8644706,22.969071 66.8368235,22.026571 68.3029412,22.026571 C68.9279993,21.989744 69.5391395,22.2229914 69.9843547,22.6682983 C70.4295699,23.1136052 70.6670208,23.7291235 70.6376471,24.3617576 L70.6404706,24.3610436 Z M67.3316471,24.4074545 C67.3316471,25.1910862 67.6581176,25.7790777 68.2658824,25.7790777 C68.8168235,25.7790777 69.1732941,25.228572 69.1732941,24.4074545 C69.1732941,23.7252131 68.9114118,23.0347604 68.2658824,23.0347604 C67.5818824,23.0354744 67.3288235,23.7359233 67.3288235,24.4081686 L67.3316471,24.4074545 Z M75.9762353,20.0680275 L75.9762353,25.3310331 C75.9762353,25.8461951 75.9963529,26.3856335 76.0136471,26.6933741 L74.7525882,26.6933741 L74.6869412,26.0211288 L74.6682353,26.0211288 C74.365763,26.5224286 73.8190085,26.8191659 73.2388235,26.7969062 C72.1538824,26.7969062 71.2838824,25.8729706 71.2838824,24.4538655 C71.2750588,22.9130208 72.2389412,22.026214 73.3309412,22.026214 C73.7917348,21.9852145 74.2427772,22.1772519 74.5358824,22.5392339 L74.5545882,22.5392339 L74.5545882,20.0676705 L75.9748235,20.0676705 L75.9762353,20.0680275 Z M74.556,24.0611572 C74.5541707,23.9775778 74.5479265,23.8941571 74.5372941,23.8112519 C74.462888,23.4057732 74.1134714,23.1114379 73.7057647,23.110803 C73.0602353,23.110803 72.7238824,23.6895123 72.7238824,24.4081686 C72.7238824,25.182161 73.1068235,25.6676913 73.6955294,25.6676913 C74.0969844,25.6725736 74.4438545,25.3849534 74.5178824,24.9858068 C74.5455943,24.8793735 74.5584249,24.7695373 74.556,24.6595019 L74.556,24.0618712 L74.556,24.0611572 Z M78.2107059,24.8640672 C78.2562353,25.4531297 78.8354118,25.7319527 79.5,25.7319527 C79.927687,25.7373517 80.3535297,25.6743358 80.7617647,25.5452377 L80.9491765,26.5055881 C80.4201498,26.706074 79.8587641,26.8048733 79.2938824,26.7969062 C77.7427059,26.7969062 76.854,25.890464 76.854,24.4624337 C76.854,23.3057292 77.5747059,22.026571 79.1643529,22.026571 C80.6410588,22.026571 81.2015294,23.1750644 81.2015294,24.3028513 C81.2008266,24.4908663 81.1853662,24.6785279 81.1552941,24.8640672 L78.2107059,24.8640672 L78.2107059,24.8640672 Z M79.884,23.8937206 C79.9112572,23.6604974 79.8392667,23.4265431 79.6859707,23.2501658 C79.5326746,23.0737885 79.3125118,22.9716009 79.0803529,22.969071 C78.5920152,22.9941299 78.2072219,23.3991509 78.2018824,23.8937206 L79.884,23.8937206 L79.884,23.8937206 Z M86.3781176,26.030768 C86.3781176,26.9090066 86.2016471,27.6280199 85.686,28.0842756 C85.1503694,28.4861031 84.492059,28.6845193 83.8263529,28.6447775 C83.2581619,28.6588599 82.6947621,28.5365131 82.1823529,28.2877699 L82.4611765,27.2149621 C82.8684044,27.4389909 83.3239823,27.5579377 83.7875294,27.5612595 C84.1116885,27.5939006 84.4331781,27.4773822 84.6630809,27.2439308 C84.8929837,27.0104794 85.0069326,26.6848383 84.9734118,26.3570729 L84.9734118,26.0579006 L84.9561176,26.0579006 C84.6668968,26.4509171 84.204838,26.6745929 83.7208235,26.6558883 C82.5914118,26.6558883 81.7867059,25.7408778 81.7867059,24.4253049 C81.7867059,22.9594318 82.7396471,22.025857 83.862,22.025857 C84.3637494,21.9944308 84.8429695,22.2403538 85.1142353,22.6684706 L85.1318824,22.6684706 L85.1791765,22.1286752 L86.4144706,22.1286752 C86.3961176,22.4171373 86.3770588,22.8002064 86.3770588,23.4813769 L86.3770588,26.02934 L86.3781176,26.030768 Z M84.9578824,23.9865426 C84.9585644,23.8986177 84.9490884,23.8109133 84.9296471,23.7252131 C84.8537897,23.3587884 84.5327994,23.0974536 84.1627059,23.1008068 C83.6484706,23.1008068 83.2277647,23.5670587 83.2277647,24.3985294 C83.2277647,25.0786288 83.5655294,25.6123551 84.1627059,25.6123551 C84.5132392,25.6141284 84.8205624,25.3758042 84.9098824,25.0329318 C84.945753,24.9121471 84.9619646,24.7862652 84.9578824,24.6602159 L84.9578824,23.9879706 L84.9578824,23.9865426 Z M91.3316471,25.5816525 C91.3247586,25.9533575 91.3463526,26.3250437 91.3962353,26.6933741 L90.1164706,26.6933741 L90.0328235,26.2356903 L90.0038824,26.2356903 C89.6730028,26.6125599 89.1919441,26.8186868 88.6941176,26.7969062 C88.3118957,26.8194549 87.9373216,26.6820449 87.6582463,26.4169036 C87.379171,26.1517624 87.2201468,25.7822165 87.2184706,25.3949375 C87.2184706,24.2100294 88.2861176,23.6413163 89.9008235,23.6509555 L89.9008235,23.5841951 C89.9008235,23.343215 89.7702353,22.9972746 89.0671765,22.9972746 C88.6243741,23.0015486 88.1900595,23.1206587 87.8057647,23.343215 L87.5442353,22.4282045 C88.0960259,22.150965 88.7060311,22.0131523 89.322,22.026571 C90.8445882,22.026571 91.3305882,22.92266 91.3305882,23.9972528 L91.3305882,25.5816525 L91.3316471,25.5816525 Z M89.9484706,24.5370483 C89.1998824,24.5284801 88.6207059,24.7066269 88.6207059,25.2560616 C88.6118752,25.40683 88.66908,25.5538907 88.7771123,25.6581474 C88.8851445,25.7624041 89.033058,25.8132929 89.1815294,25.797285 C89.512662,25.8008985 89.8094171,25.5911209 89.9198824,25.27534 C89.9384494,25.1954078 89.9480395,25.1136115 89.9484706,25.0315038 L89.9484706,24.5374053 L89.9484706,24.5370483 Z M92.4444706,25.4531297 C92.8207841,25.6608156 93.2391303,25.778545 93.6674118,25.797285 C94.0972941,25.797285 94.2751765,25.6487699 94.2751765,25.4152869 C94.2751765,25.181804 94.134,25.0693466 93.6045882,24.8929848 C92.6601176,24.5738201 92.2948235,24.0611572 92.3050588,23.5299299 C92.3050588,22.6698987 93.0331765,22.026571 94.1643529,22.026571 C94.6078511,22.0196915 95.047679,22.1087923 95.4543529,22.2879006 L95.2023529,23.2689574 C94.8967566,23.1055264 94.557919,23.0158394 94.2123529,23.0069138 C93.8657647,23.0069138 93.6688235,23.1468608 93.6688235,23.3803437 C93.6688235,23.5945483 93.8474118,23.7059347 94.4082353,23.9033598 C95.2764706,24.2025322 95.6414118,24.6405805 95.6498824,25.3128258 C95.6498824,26.1610758 94.9768235,26.7969062 93.6688235,26.7969062 C93.1580424,26.8065434 92.6522203,26.6941346 92.1924706,26.4688163 L92.4444706,25.4531297 Z" id="Forma_4" fill="#EF7521"></path>
                </g>
            </g>
        </g>
    </g>
</svg>