<?xml version="1.0" encoding="UTF-8" standalone="no"?>
<svg width="22px" height="38px" viewBox="0 0 22 38" version="1.1" xmlns="http://www.w3.org/2000/svg" xmlns:xlink="http://www.w3.org/1999/xlink">
    <!-- Generator: Sketch 3.8.3 (29802) - http://www.bohemiancoding.com/sketch -->
    <title>btn-prev</title>
    <desc>Created with Sketch.</desc>
    <defs></defs>
    <g id="Desktop" stroke="none" stroke-width="1" fill="none" fill-rule="evenodd">
        <g id="01-Home" transform="translate(-20.000000, -433.000000)" fill="#FF7806">
            <g id="portada" transform="translate(0.000000, 78.000000)">
                <polygon id="btn-prev" transform="translate(30.610000, 374.000000) rotate(-180.000000) translate(-30.610000, -374.000000) " points="23 393 20 390 36 374 20 358 23 355 41.22 375"></polygon>
            </g>
        </g>
    </g>
</svg>