<?xml version="1.0" encoding="UTF-8" standalone="no"?>
<svg width="16px" height="21px" viewBox="0 0 16 21" version="1.1" xmlns="http://www.w3.org/2000/svg" xmlns:xlink="http://www.w3.org/1999/xlink">
    <!-- Generator: Sketch 3.8.3 (29802) - http://www.bohemiancoding.com/sketch -->
    <title>ico-sucursales</title>
    <desc>Created with Sketch.</desc>
    <defs></defs>
    <g id="Symbols" stroke="none" stroke-width="1" fill="none" fill-rule="evenodd">
        <g id="top-nav" transform="translate(-1165.000000, -26.000000)" fill="#401465">
            <path d="M1179.22153,28.354 C1177.83153,26.792 1175.73553,26 1172.96953,26 C1170.22453,26 1168.13153,26.793 1166.75053,28.355 C1165.45074,29.9788001 1164.83612,32.0458268 1165.03753,34.116 C1165.56153,39.581 1170.55153,45.272 1172.25853,46.834 C1172.38063,46.9439218 1172.53924,47.0045148 1172.70353,47.004 L1173.14853,47.004 C1173.32115,47.003965 1173.48693,46.9365047 1173.61053,46.816 C1178.00053,42.543 1180.54353,38.152 1180.96553,34.125 C1181.15665,32.047749 1180.53109,29.9777448 1179.22153,28.354 L1179.22153,28.354 Z M1179.65053,33.983 C1179.26853,37.635 1176.94453,41.66 1172.92453,45.638 C1171.34453,44.091 1166.82453,38.863 1166.35653,33.973 C1166.20394,32.2703438 1166.70442,30.5733604 1167.75653,29.226 C1168.87553,27.966 1170.63053,27.326 1172.99553,27.326 C1174.93288,27.170338 1176.84235,27.8636291 1178.22853,29.226 C1179.28759,30.5745042 1179.79577,32.2745005 1179.65053,33.983 L1179.65053,33.983 Z M1173.03153,30.704 C1171.67775,30.7023817 1170.45639,31.5166898 1169.93729,32.7669982 C1169.41819,34.0173065 1169.70365,35.457215 1170.66049,36.4149152 C1171.61733,37.3726155 1173.05699,37.659372 1174.30776,37.1413949 C1175.55853,36.6234177 1176.37394,35.4027854 1176.37353,34.049 C1176.37188,32.2034625 1174.87707,30.7073067 1173.03153,30.704 L1173.03153,30.704 Z M1173.03153,36.068 C1172.21515,36.0688091 1171.4787,35.5776525 1171.16572,34.823642 C1170.85274,34.0696315 1171.0249,33.2013259 1171.60188,32.6237671 C1172.17887,32.0462084 1173.04701,31.87319 1173.80133,32.1854205 C1174.55565,32.497651 1175.04753,33.2336133 1175.04753,34.05 C1175.04809,35.1642828 1174.14581,36.0683444 1173.03153,36.07 L1173.03153,36.068 Z" id="ico-sucursales"></path>
        </g>
    </g>
</svg>