<?xml version="1.0" encoding="UTF-8" standalone="no"?>
<svg width="31px" height="24px" viewBox="0 0 31 24" version="1.1" xmlns="http://www.w3.org/2000/svg" xmlns:xlink="http://www.w3.org/1999/xlink">
    <!-- Generator: Sketch 3.8.3 (29802) - http://www.bohemiancoding.com/sketch -->
    <title>Rectángulo_5_copia</title>
    <desc>Created with Sketch.</desc>
    <defs></defs>
    <g id="Symbols" stroke="none" stroke-width="1" fill="none" fill-rule="evenodd">
        <g id="top-nav" transform="translate(-1391.000000, -28.000000)" fill="#401465">
            <path d="M1391,28 L1422,28 L1422,30.719 L1391,30.719 L1391,28 L1391,28 Z M1391,49.281 L1422,49.281 L1422,52 L1391,52 L1391,49.281 L1391,49.281 Z M1391,39.125 L1422,39.125 L1422,41.875 L1391,41.875 L1391,39.125 L1391,39.125 Z" id="Rectángulo_5_copia"></path>
        </g>
    </g>
</svg>