<?xml version="1.0" encoding="UTF-8" standalone="no"?>
<svg width="103px" height="94px" viewBox="0 0 103 94" version="1.1" xmlns="http://www.w3.org/2000/svg" xmlns:xlink="http://www.w3.org/1999/xlink">
    <!-- Generator: Sketch 3.8.3 (29802) - http://www.bohemiancoding.com/sketch -->
    <title>ico-accesabilidad</title>
    <desc>Created with Sketch.</desc>
    <defs></defs>
    <g id="Desktop" stroke="none" stroke-width="1" fill="none" fill-rule="evenodd">
        <g id="01-Home" transform="translate(-1096.000000, -2164.000000)" fill="#FFFFFF">
            <g id="Beneficios" transform="translate(0.000000, 2033.000000)">
                <g id="ico-accesibilidad" transform="translate(1047.000000, 88.000000)">
                    <path d="M89.6831673,93.8069379 C91.533617,96.868706 95.2802714,98.209482 98.6531673,97.0169379 C99.0994134,96.8955774 99.5751617,96.9492332 99.9831673,97.1669379 C104.623167,99.7869379 109.243167,102.433605 113.843167,105.106938 C114.914158,105.801374 116.227097,106.015361 117.463167,105.696938 C119.150958,105.240028 120.389184,103.799643 120.587601,102.062394 C120.786018,100.325144 119.904466,98.6426524 118.363167,97.8169379 C113.693167,95.1269379 109.019834,92.4436045 104.343167,89.7669379 C103.862376,89.5646897 103.52403,89.1236996 103.453167,88.6069379 C103.150939,86.9714315 102.317947,85.4811832 101.083167,84.3669379 C100.708225,83.9895066 100.484168,83.488045 100.453167,82.9569379 C100.403167,78.8369379 100.423167,74.7069379 100.423167,70.5769379 C100.423167,66.5869379 100.433167,62.5969379 100.413167,58.6069379 C100.427283,57.8496909 100.312306,57.0955721 100.073167,56.3769379 C99.3004047,54.4794556 97.2908259,53.3962432 95.2809677,53.7938243 C93.2711094,54.1914055 91.825296,55.9581482 91.8331673,58.0069379 C91.8231673,66.2869379 91.8265006,74.5702712 91.8431673,82.8569379 C91.876406,83.4725621 91.607767,84.0658066 91.1231673,84.4469379 C88.4289289,86.8005535 87.8209631,90.7523311 89.6831673,93.8069379 L89.6831673,93.8069379 Z M96.1431673,86.8069379 C97.2756993,86.8140832 98.31839,87.4248843 98.8784679,88.4092584 C99.4385459,89.3936324 99.4309219,90.6020296 98.8584679,91.5792584 C98.2860139,92.5564872 97.2356993,93.1540832 96.1031673,93.1469379 C94.9706354,93.1397926 93.9279447,92.5289915 93.3678667,91.5446174 C92.8077887,90.5602433 92.8154127,89.3518461 93.3878667,88.3746173 C93.9603207,87.3973886 95.0106354,86.7997925 96.1431673,86.8069379 L96.1431673,86.8069379 Z M136.403167,103.836938 C127.838538,103.82198 120.877891,110.742366 120.843167,119.306938 C112.584725,126.327562 101.715493,129.476217 90.9831673,127.956938 C82.24391,126.927426 74.1624938,122.801576 68.2031673,116.326938 C59.9146208,107.877876 56.1389268,95.9901949 58.0331673,84.3069379 C59.1774341,75.7739711 63.308613,67.9226054 69.6931673,62.1469379 C79.0631673,53.4769379 90.2131673,50.0669379 102.773167,52.2669379 C115.673167,54.5269379 124.983167,61.8569379 130.863167,73.4969379 C132.117923,76.0230777 133.04862,78.6975722 133.633167,81.4569379 C131.553167,81.4569379 129.573167,81.4769379 127.583167,81.4569379 C126.66484,81.3463391 125.785466,81.861693 125.433167,82.7169379 C125.064086,83.5219511 125.226887,84.4709616 125.843167,85.1069379 C129.293167,89.2069379 132.723167,93.3169379 136.173167,97.4169379 C137.423167,98.9069379 138.753167,98.9069379 140.003167,97.4369379 C141.163167,96.0769379 142.303167,94.7069379 143.443167,93.3369379 C145.943167,90.3069379 148.443167,87.2702712 150.943167,84.2269379 L150.943167,82.8469379 C150.339131,81.8355691 149.19083,81.2810813 148.023167,81.4369379 C146.213167,81.5369379 144.393167,81.4569379 142.543167,81.4569379 C142.083167,79.7369379 141.733167,78.0269379 141.183167,76.3869379 C135.373167,59.0469379 123.563167,47.9569379 105.623167,44.1269379 C89.7131673,40.7469379 75.5531673,45.0369379 63.6431673,56.0969379 C55.8448487,63.1946159 50.8286098,72.8371387 49.4931673,83.2969379 C47.5331673,97.6969379 51.4131673,110.506938 61.1731673,121.346938 C68.7599311,129.922485 79.2858009,135.342416 90.6731673,136.536938 C91.7131673,136.656938 92.7531673,136.796938 93.8031673,136.926938 L98.3731673,136.926938 C99.6831673,136.786938 100.993167,136.666938 102.293167,136.486938 C109.923458,135.288911 117.194004,132.416892 123.583167,128.076938 C127.734824,134.200706 135.630547,136.54463 142.451074,133.678064 C149.271601,130.811498 153.122222,123.530761 151.652658,116.279749 C150.183094,109.028737 143.801583,103.821748 136.403167,103.836938 L136.403167,103.836938 Z M136.403167,130.776938 C130.084645,130.746599 124.98394,125.605679 125.003222,119.287113 C125.022504,112.968547 130.154491,107.858854 136.473081,107.86708 C142.791671,107.875305 147.910336,112.998343 147.913167,119.316938 C147.891119,125.65649 142.742756,130.782489 136.403167,130.776938 L136.403167,130.776938 Z M126.703167,121.206938 L128.793167,119.176938 C128.923167,119.056938 129.043167,118.936938 129.143167,118.836938 C129.230766,118.739717 129.310988,118.636096 129.383167,118.526938 C129.449287,118.428598 129.499879,118.320668 129.533167,118.206938 C129.566518,118.086439 129.583339,117.961967 129.583167,117.836938 C129.582747,117.702907 129.555548,117.570311 129.503167,117.446938 C129.456691,117.332562 129.380791,117.232513 129.283167,117.156938 C129.190261,117.072868 129.081453,117.008263 128.963167,116.966938 C128.837818,116.92263 128.706101,116.898988 128.573167,116.896938 C128.316601,116.888663 128.066445,116.978004 127.873167,117.146938 C127.687144,117.315751 127.560835,117.5403 127.513167,117.786938 L126.803167,117.716938 C126.838154,117.509511 126.90923,117.309823 127.013167,117.126938 C127.109411,116.956529 127.238583,116.806961 127.393167,116.686938 C127.554953,116.572756 127.733849,116.484996 127.923167,116.426938 C128.124583,116.368993 128.33364,116.342018 128.543167,116.346938 C128.763345,116.340331 128.983068,116.370754 129.193167,116.436938 C129.390482,116.497163 129.573983,116.59571 129.733167,116.726938 C129.892881,116.847069 130.020063,117.005187 130.103167,117.186938 C130.19411,117.391301 130.238513,117.613317 130.233167,117.836938 C130.241468,118.037567 130.210908,118.237909 130.143167,118.426938 C130.089764,118.602007 130.008744,118.767423 129.903167,118.916938 C129.80094,119.065575 129.687261,119.206002 129.563167,119.336938 L129.163167,119.736938 L127.453167,121.326938 L127.453167,121.346938 L130.273167,121.346938 L130.273167,121.956938 L126.703167,121.956938 L126.703167,121.206938 L126.703167,121.206938 Z M133.953167,120.086938 L134.753167,120.086938 L134.753167,120.696938 L133.953167,120.696938 L133.953167,121.956938 L133.303167,121.956938 L133.303167,120.696938 L130.943167,120.696938 L130.943167,119.966938 L133.143167,116.436938 L133.953167,116.436938 L133.953167,120.086938 L133.953167,120.086938 Z M133.303167,117.196938 L133.283167,117.196938 L131.503167,120.086938 L133.303167,120.086938 L133.303167,117.196938 L133.303167,117.196938 Z M137.793167,116.056938 L138.393167,116.056938 L138.393167,118.816938 L138.413167,118.816938 C138.457645,118.734947 138.515048,118.66066 138.583167,118.596938 C138.667318,118.525676 138.757679,118.462089 138.853167,118.406938 C138.960374,118.346595 139.074554,118.29958 139.193167,118.266938 C139.32306,118.229429 139.458038,118.212557 139.593167,118.216938 C139.804281,118.211028 140.014617,118.244953 140.213167,118.316938 C140.379956,118.388263 140.52987,118.493884 140.653167,118.626938 C140.769308,118.763818 140.854578,118.924126 140.903167,119.096938 C140.956258,119.295925 140.983152,119.50099 140.983167,119.706938 L140.983167,121.956938 L140.373167,121.956938 L140.373167,119.766938 C140.385858,119.508524 140.315796,119.252798 140.173167,119.036938 C140.014719,118.851476 139.776066,118.754523 139.533167,118.776938 C139.357713,118.770268 139.183111,118.804503 139.023167,118.876938 C138.88361,118.942067 138.7631,119.041918 138.673167,119.166938 C138.577664,119.300012 138.506559,119.448993 138.463167,119.606938 C138.417741,119.793568 138.394249,119.984862 138.393167,120.176938 L138.393167,121.956938 L137.793167,121.956938 L137.793167,116.056938 L137.793167,116.056938 Z M142.143167,119.176938 C142.143167,119.006938 142.143167,118.846938 142.133167,118.706938 C142.123167,118.566938 142.113167,118.426938 142.113167,118.306938 L142.693167,118.306938 C142.693167,118.406938 142.703167,118.506938 142.703167,118.596938 C142.703167,118.686938 142.713167,118.806938 142.713167,118.906938 L142.723167,118.906938 C142.770332,118.812054 142.830958,118.724483 142.903167,118.646938 C142.982249,118.561139 143.073164,118.48706 143.173167,118.426938 C143.284011,118.361691 143.401301,118.308073 143.523167,118.266938 C143.663194,118.228863 143.80814,118.212009 143.953167,118.216938 L144.073167,118.216938 C144.113167,118.226938 144.153167,118.236938 144.203167,118.246938 L144.163167,118.866938 C144.055879,118.835676 143.944901,118.818862 143.833167,118.816938 C143.513823,118.787705 143.202554,118.928156 143.013167,119.186938 C142.826064,119.482048 142.735214,119.827975 142.753167,120.176938 L142.753167,121.956938 L142.143167,121.956938 L142.143167,119.176938 L142.143167,119.176938 Z M144.983167,120.996938 C145.092719,121.137354 145.22445,121.258952 145.373167,121.356938 C145.541024,121.450111 145.731359,121.495099 145.923167,121.486938 C146.017298,121.486852 146.111155,121.476796 146.203167,121.456938 C146.298961,121.442043 146.390782,121.408036 146.473167,121.356938 C146.545806,121.307593 146.609971,121.246805 146.663167,121.176938 C146.713031,121.103418 146.737603,121.015662 146.733167,120.926938 C146.739164,120.841154 146.714341,120.756047 146.663167,120.686938 C146.61928,120.621477 146.561165,120.566781 146.493167,120.526938 C146.409996,120.482503 146.322975,120.445687 146.233167,120.416938 C146.143167,120.396938 146.043167,120.366938 145.943167,120.346938 C145.773167,120.316938 145.613167,120.266938 145.453167,120.226938 C145.308719,120.181966 145.170855,120.118078 145.043167,120.036938 C144.925311,119.964079 144.826027,119.864794 144.753167,119.746938 C144.684103,119.603609 144.649841,119.446004 144.653167,119.286938 C144.650056,119.122317 144.691519,118.959918 144.773167,118.816938 C144.852072,118.686307 144.957718,118.573845 145.083167,118.486938 C145.218439,118.395209 145.366774,118.324412 145.523167,118.276938 C145.686778,118.236703 145.854682,118.216554 146.023167,118.216938 C146.2744,118.214441 146.523274,118.265579 146.753167,118.366938 C146.976636,118.476876 147.158911,118.655646 147.273167,118.876938 L146.763167,119.206938 C146.686355,119.080109 146.579996,118.97375 146.453167,118.896938 C146.311174,118.812877 146.148079,118.771236 145.983167,118.776938 C145.898943,118.777045 145.815026,118.787115 145.733167,118.806938 C145.651718,118.822882 145.573807,118.853369 145.503167,118.896938 C145.435169,118.936781 145.377055,118.991477 145.333167,119.056938 C145.286315,119.120598 145.261716,119.197908 145.263167,119.276938 C145.261986,119.351626 145.290803,119.423669 145.343167,119.476938 C145.394634,119.544518 145.46388,119.596452 145.543167,119.626938 C145.639546,119.672813 145.739978,119.709637 145.843167,119.736938 C145.957478,119.770803 146.074625,119.794233 146.193167,119.806938 C146.353167,119.846938 146.513167,119.886938 146.653167,119.936938 C146.792982,119.977747 146.924855,120.041993 147.043167,120.126938 C147.147738,120.215164 147.232865,120.324127 147.293167,120.446938 C147.36112,120.590647 147.395324,120.747987 147.393167,120.906938 C147.394071,121.091606 147.349419,121.273647 147.263167,121.436938 C147.180337,121.576522 147.067642,121.696047 146.933167,121.786938 C146.78894,121.879707 146.630018,121.947334 146.463167,121.986938 C146.285904,122.026631 146.10482,122.046751 145.923167,122.046938 C145.646432,122.056196 145.370741,122.008546 145.113167,121.906938 C144.861768,121.785866 144.647605,121.599337 144.493167,121.366938 L144.983167,120.996938 Z" id="ico-accesabilidad"></path>
                </g>
            </g>
        </g>
    </g>
</svg>