<?xml version="1.0" encoding="UTF-8" standalone="no"?>
<svg width="22px" height="18px" viewBox="0 0 22 18" version="1.1" xmlns="http://www.w3.org/2000/svg" xmlns:xlink="http://www.w3.org/1999/xlink">
    <!-- Generator: Sketch 3.8.3 (29802) - http://www.bohemiancoding.com/sketch -->
    <title>lg-twitter</title>
    <desc>Created with Sketch.</desc>
    <defs></defs>
    <g id="Symbols" stroke="none" stroke-width="1" fill="none" fill-rule="evenodd">
        <g id="footer" transform="translate(-859.000000, -74.000000)" fill="#646469">
            <g id="social-media" transform="translate(830.000000, 74.000000)">
                <path d="M50.7666761,2.12613928 C49.9534015,2.49542513 49.087903,2.73670219 48.2008726,2.84141444 C49.1391369,2.27053142 49.8368094,1.37685729 50.1629576,0.328108155 C49.2889552,0.858335811 48.3298909,1.23352533 47.3281056,1.43711276 C46.4911628,0.521142951 45.3074687,-0.000444585276 44.0667134,2.84344206e-07 C42.872735,0.0102234583 41.7317451,0.494447228 40.8948605,1.34610041 C40.0579759,2.19775359 39.5937837,3.34703862 39.6044464,4.54101321 C39.6040877,4.88963428 39.6414914,5.23726868 39.716003,5.57783408 C36.1094826,5.3882261 32.7584107,3.65771536 30.5158584,0.826832118 C29.3350298,2.90188349 29.9328352,5.53507364 31.8939114,6.89682772 C31.1841463,6.87146119 30.4909113,6.67564481 29.8727669,6.32592002 L29.8727669,6.38497944 C29.8625135,8.53083752 31.3576466,10.3901697 33.4557049,10.8406843 C33.0732125,10.9466758 32.6779822,10.9996676 32.2810787,10.9981761 C31.9966853,10.9997101 31.7129294,10.9711145 31.4345604,10.9128681 C32.0024906,12.7538057 33.6821669,14.026768 35.6080925,14.0758279 C34.0335207,15.3334043 32.0782059,16.0183429 30.0630695,16.0182265 C29.7077601,16.0163871 29.3528382,15.9944784 29,15.9526049 C31.0322107,17.2895409 33.411785,18.0013599 35.8443302,17.999998 C44.0601512,17.999998 48.5486669,11.0703598 48.5486669,5.0659858 L48.5355426,4.47539164 C49.4144285,3.83279551 50.1702333,3.03697743 50.7666761,2.12613928 L50.7666761,2.12613928 Z" id="lg-twitter"></path>
            </g>
        </g>
    </g>
</svg>