<?xml version="1.0" encoding="UTF-8" standalone="no"?>
<svg width="14px" height="18px" viewBox="0 0 14 18" version="1.1" xmlns="http://www.w3.org/2000/svg" xmlns:xlink="http://www.w3.org/1999/xlink">
    <!-- Generator: Sketch 3.8.3 (29802) - http://www.bohemiancoding.com/sketch -->
    <title>ico-yt</title>
    <desc>Created with Sketch.</desc>
    <defs></defs>
    <g id="Symbols" stroke="none" stroke-width="1" fill="none" fill-rule="evenodd">
        <g id="footer" transform="translate(-938.000000, -74.000000)" fill="#646469">
            <g id="social-media" transform="translate(830.000000, 74.000000)">
                <path d="M116.538666,12.4981661 C116.538666,12.0550021 116.420803,11.8239911 116.185078,11.8239911 C116.024552,11.8367815 115.877084,11.9173746 115.77963,12.0455731 L115.77963,15.067574 C115.877084,15.1957725 116.024552,15.2763656 116.185078,15.289156 C116.420803,15.289156 116.538666,15.067574 116.538666,14.6149811 L116.538666,12.4981661 L116.538666,12.4981661 Z M119.593669,12.5075951 C119.593669,12.0550021 119.456948,11.8239911 119.188221,11.8239911 C118.919494,11.8239911 118.782773,12.0550021 118.782773,12.5075951 L118.782773,12.9696171 L119.593669,12.9696171 L119.593669,12.5075951 L119.593669,12.5075951 Z M110.862396,10.3153479 L110.862396,16.0293341 L109.961925,16.0293341 L109.961925,10.3153479 L109.009594,10.3153479 L109.009594,9.37244592 L111.833585,9.37244592 L111.833585,10.3153479 L110.862396,10.3153479 L110.862396,10.3153479 Z M113.464806,16.0293341 L113.464806,15.4871654 C113.266856,15.8200139 112.928855,16.0453475 112.545476,16.1000517 C112.304205,16.1233685 112.081989,15.9672172 112.022165,15.7323199 C111.962143,15.4920056 111.936742,15.2443516 111.946733,14.9968564 L111.946733,11.0696695 L112.752915,11.0696695 L112.752915,14.7234148 C112.747616,14.8413515 112.750767,14.9595163 112.762344,15.077003 C112.757649,15.1305107 112.775212,15.1835883 112.810897,15.2237341 C112.846583,15.2638799 112.897235,15.2875452 112.950924,15.289156 C113.181455,15.2405909 113.373495,15.0820257 113.464806,14.8648501 L113.464806,11.0696695 L114.270987,11.0696695 L114.270987,16.0293341 L113.464806,16.0293341 L113.464806,16.0293341 Z M117.344847,14.5442634 C117.359981,14.8810239 117.333058,15.2183572 117.264701,15.548454 C117.214561,15.8662558 116.940545,16.1002687 116.618813,16.1000517 C116.266248,16.0629797 115.95349,15.8574026 115.77963,15.548454 L115.77963,16.0293341 L114.978163,16.0293341 L114.978163,9.37244592 L115.77963,9.37244592 L115.77963,11.5505495 C115.955011,11.2445528 116.267773,11.0424877 116.618813,11.0083809 C116.944111,11.0120182 117.218247,11.2521377 117.264701,11.5741221 C117.333982,11.8993032 117.360921,12.2320784 117.344847,12.5641692 L117.344847,14.5442634 L117.344847,14.5442634 Z M120.39985,14.4452587 C120.407213,14.6387566 120.400911,14.8325328 120.380992,15.0251434 C120.361338,15.2181142 120.296752,15.4037975 120.192411,15.5673121 C119.989833,15.9108467 119.615026,16.1154513 119.216508,16.1000517 C118.823678,16.1165295 118.451813,15.9225131 118.240604,15.5908846 C118.037992,15.2379127 117.946018,14.8322407 117.976592,14.4264007 L117.976592,12.6867465 C117.944288,12.2819406 118.032893,11.8766569 118.231175,11.5222625 C118.445876,11.2011579 118.806665,11.0083843 119.192935,11.0083843 C119.579205,11.0083843 119.939995,11.2011579 120.154695,11.5222625 C120.342592,11.8802611 120.427458,12.2833783 120.39985,12.6867465 L120.39985,13.7192242 L118.782773,13.7192242 L118.782773,14.596123 C118.782773,15.058145 118.914779,15.289156 119.19765,15.289156 C119.293303,15.2885328 119.384791,15.2499359 119.451987,15.1818565 C119.519182,15.1137771 119.55658,15.0217923 119.555952,14.9261387 C119.573328,14.7223353 119.579623,14.5177386 119.574811,14.3132524 L120.39985,14.3132524 L120.39985,14.4452587 L120.39985,14.4452587 Z M114.902731,5.27553671 C114.902731,5.73755869 114.784868,5.9779987 114.516141,5.9779987 C114.247414,5.9779987 114.124837,5.73755869 114.124837,5.27553671 L114.124837,3.16343622 C114.124837,2.70141424 114.252129,2.47040325 114.516141,2.47040325 C114.780154,2.47040325 114.902731,2.70141424 114.902731,3.16343622 L114.902731,5.27553671 L114.902731,5.27553671 Z M121.399326,12.8187527 C121.438757,11.6416575 121.361375,10.4635527 121.168315,9.30172827 C121.04588,8.55537516 120.465666,7.96760168 119.72096,7.83551565 C116.385411,7.5652176 113.033461,7.5652176 109.697912,7.83551565 C108.952133,7.96724817 108.370341,8.55470713 108.245843,9.30172827 C108.053551,10.4636689 107.974605,11.6415437 108.010117,12.8187527 L108.010117,12.8187527 C107.970056,13.9944762 108.049033,15.1712366 108.245843,16.3310627 C108.362023,17.0770666 108.943648,17.664394 109.688483,17.7878463 C113.02666,18.0707179 116.382783,18.0707179 119.72096,17.7878463 C120.465306,17.6617421 121.047047,17.0762118 121.168315,16.3310627 C121.358881,15.1705365 121.436248,13.9942412 121.399326,12.8187527 L121.399326,12.8187527 Z M112.380468,0 L111.767582,2.64484012 L111.126409,0 L110.169363,0 C110.357943,0.622315322 110.555953,1.25877417 110.753962,1.8810895 C110.984424,2.57692505 111.168691,3.28721795 111.30556,4.00733352 L111.30556,6.73232031 L112.210746,6.73232031 L112.210746,4.00733352 L113.304512,0 L112.380468,0 L112.380468,0 Z M115.72777,3.34730211 C115.757502,2.93966212 115.669113,2.53209112 115.473187,2.17338912 C115.262492,1.85271343 114.904555,1.659607 114.520856,1.659607 C114.137156,1.659607 113.77922,1.85271343 113.568525,2.17338912 C113.370381,2.53126123 113.281848,2.93949904 113.313941,3.34730211 L113.313941,5.10581435 C113.283902,5.51649055 113.372255,5.92716805 113.568525,6.28915636 C113.77922,6.60983205 114.137156,6.80293849 114.520856,6.80293849 C114.904555,6.80293849 115.262492,6.60983205 115.473187,6.28915636 C115.668391,5.9267747 115.756676,5.51641097 115.72777,5.10581435 L115.72777,3.34730211 L115.72777,3.34730211 Z M118.754486,1.72079616 L117.929447,1.72079616 L117.929447,5.54426378 C117.841394,5.76563051 117.648576,5.92837627 117.415565,5.9779987 C117.361057,5.97391786 117.310449,5.94819721 117.275022,5.90657138 C117.239596,5.86494556 117.222298,5.81087556 117.226985,5.75641673 C117.215096,5.63894971 117.211944,5.52076217 117.217556,5.40282848 L117.217556,1.72079616 L116.397231,1.72079616 L116.397231,5.67627006 C116.386021,5.92976579 116.409818,6.18359662 116.467948,6.43059166 C116.534002,6.66588843 116.757017,6.82180142 117.000688,6.80303796 C117.389265,6.74884185 117.731549,6.51949401 117.929447,6.18072263 L117.929447,6.73232031 L118.754486,6.73232031 L118.754486,1.72079616 L118.754486,1.72079616 Z" id="ico-yt"></path>
            </g>
        </g>
    </g>
</svg>